32bitCPU-VHDL/waves/TB_Datapath.vcd
$date
  Tue Mar 31 23:00:40 2026
$end
$version
  GHDL v0
$end
$timescale
  1 fs
$end
$scope module standard $end
$upscope $end
$scope module textio $end
$upscope $end
$scope module std_logic_1164 $end
$upscope $end
$scope module numeric_std $end
$upscope $end
$scope module tb_datapath $end
$var reg 1 ! clk $end
$var reg 1 " rst $end
$var reg 32 # tb_pc[31:0] $end
$var reg 32 $ tb_instruction[31:0] $end
$var reg 32 % tb_alu_result[31:0] $end
$var reg 32 & tb_reg_write_data[31:0] $end
$var reg 5 ' tb_reg_write_dest[4:0] $end
$var reg 1 ( tb_reg_write_en $end
$scope module uut $end
$var reg 1 ) clk $end
$var reg 1 * rst $end
$var reg 32 + tb_pc[31:0] $end
$var reg 32 , tb_instruction[31:0] $end
$var reg 32 - tb_alu_result[31:0] $end
$var reg 32 . tb_reg_write_data[31:0] $end
$var reg 5 / tb_reg_write_dest[4:0] $end
$var reg 1 0 tb_reg_write_en $end
$var reg 32 1 instruction[31:0] $end
$var reg 6 2 opcode_s[5:0] $end
$var reg 5 3 rs_s[4:0] $end
$var reg 5 4 rt_s[4:0] $end
$var reg 5 5 rd_s[4:0] $end
$var reg 5 6 shamt_s[4:0] $end
$var reg 6 7 funct_s[5:0] $end
$var reg 16 8 imm16_s[15:0] $end
$var reg 26 9 j_target_s[25:0] $end
$var reg 2 : ctrl_reg_dst[1:0] $end
$var reg 2 ; ctrl_mem_to_reg[1:0] $end
$var reg 2 < ctrl_alu_op[1:0] $end
$var reg 1 = ctrl_jump $end
$var reg 1 > ctrl_branch $end
$var reg 1 ? ctrl_mem_read $end
$var reg 1 @ ctrl_mem_write $end
$var reg 1 A ctrl_alu_src $end
$var reg 1 B ctrl_reg_write $end
$var reg 1 C ctrl_sign_or_zero $end
$var reg 32 D pc[31:0] $end
$var reg 32 E pc_next[31:0] $end
$var reg 32 F pc_plus4[31:0] $end
$var reg 32 G branch_target[31:0] $end
$var reg 32 H jump_target[31:0] $end
$var reg 5 I write_reg[4:0] $end
$var reg 32 J write_data[31:0] $end
$var reg 32 K reg_data_1[31:0] $end
$var reg 32 L reg_data_2[31:0] $end
$var reg 32 M sign_ext_imm[31:0] $end
$var reg 32 N alu_in_b[31:0] $end
$var reg 3 O alu_control_signal[2:0] $end
$var reg 32 P alu_result_s[31:0] $end
$var reg 1 Q alu_zero $end
$var reg 32 R mem_read_data_s[31:0] $end
$scope module imem $end
$var reg 32 S pc[31:0] $end
$var reg 32 T instruction[31:0] $end
$upscope $end
$scope module ctrl $end
$var reg 6 U opcode[5:0] $end
$var reg 1 V reset $end
$var reg 2 W reg_dst[1:0] $end
$var reg 2 X mem_to_reg[1:0] $end
$var reg 2 Y alu_op[1:0] $end
$var reg 1 Z jump $end
$var reg 1 [ branch $end
$var reg 1 \ mem_read $end
$var reg 1 ] mem_write $end
$var reg 1 ^ alu_src $end
$var reg 1 _ reg_write $end
$var reg 1 ` sign_or_zero $end
$upscope $end
$scope module regfile $end
$var reg 1 a clk $end
$var reg 1 b rst $end
$var reg 1 c reg_write_en $end
$var reg 5 d reg_write_dest[4:0] $end
$var reg 32 e reg_write_data[31:0] $end
$var reg 5 f reg_read_addr_1[4:0] $end
$var reg 5 g reg_read_addr_2[4:0] $end
$var reg 32 h reg_read_data_1[31:0] $end
$var reg 32 i reg_read_data_2[31:0] $end
$comment registers is not handled $end
$upscope $end
$scope module ext $end
$var reg 1 j sign_or_zero $end
$var reg 16 k data_in[15:0] $end
$var reg 32 l data_out[31:0] $end
$upscope $end
$scope module alu_dec $end
$var reg 2 m aluop[1:0] $end
$var reg 6 n alu_funct[5:0] $end
$var reg 3 o alu_control[2:0] $end
$upscope $end
$scope module alu_core $end
$var reg 32 p a[31:0] $end
$var reg 32 q b[31:0] $end
$var reg 3 r alu_control[2:0] $end
$var reg 32 s alu_result[31:0] $end
$var reg 1 t zero $end
$upscope $end
$scope module dmem $end
$var reg 1 u clk $end
$var reg 32 v mem_access_addr[31:0] $end
$var reg 32 w mem_write_data[31:0] $end
$var reg 1 x mem_write_en $end
$var reg 1 y mem_read $end
$var reg 32 z mem_read_data[31:0] $end
$comment ram is not handled $end
$upscope $end
$upscope $end
$upscope $end
$enddefinitions $end
#0
0!
1"
b00000000000000000000000000000000 #
b00000000010000110000100000100000 $
b00000000000000000000000000000101 %
b00000000000000000000000000000101 &
b00011 '
0(
0)
1*
b00000000000000000000000000000000 +
b00000000010000110000100000100000 ,
b00000000000000000000000000000101 -
b00000000000000000000000000000101 .
b00011 /
00
b00000000010000110000100000100000 1
b000000 2
b00010 3
b00011 4
b00001 5
b00000 6
b100000 7
b0000100000100000 8
b00010000110000100000100000 9
b00 :
b00 ;
b00 <
0=
0>
0?
0@
0A
0B
0C
b00000000000000000000000000000000 D
b00000000000000000000000000000100 E
b00000000000000000000000000000100 F
b00000000000000000010000010000100 G
b00000001000011000010000010000000 H
b00011 I
b00000000000000000000000000000101 J
b00000000000000000000000000000010 K
b00000000000000000000000000000011 L
b00000000000000000000100000100000 M
b00000000000000000000000000000011 N
b000 O
b00000000000000000000000000000101 P
0Q
bUUUUUUUUUUUUUUUUUUUUUUUUUUUUUUUU R
b00000000000000000000000000000000 S
b00000000010000110000100000100000 T
b000000 U
1V
b00 W
b00 X
b00 Y
0Z
0[
0\
0]
0^
0_
0`
0a
1b
0c
b00011 d
b00000000000000000000000000000101 e
b00010 f
b00011 g
b00000000000000000000000000000010 h
b00000000000000000000000000000011 i
0j
b0000100000100000 k
b00000000000000000000100000100000 l
b00 m
b100000 n
b000 o
b00000000000000000000000000000010 p
b00000000000000000000000000000011 q
b000 r
b00000000000000000000000000000101 s
0t
0u
b00000000000000000000000000000101 v
b00000000000000000000000000000011 w
0x
0y
bUUUUUUUUUUUUUUUUUUUUUUUUUUUUUUUU z
#5000000
1!
1)
b00000000000000000000000000000000 R
1a
1u
b00000000000000000000000000000000 z
#10000000
0!
0)
0a
0u
#15000000
1!
0"
b00001 '
1(
1)
0*
b00001 /
10
b01 :
1B
b00001 I
0V
b01 W
1_
1a
0b
1c
b00001 d
1u
#16000000
#20000000
0!
0)
0a
0u
#25000000
1!
b00000000000000000000000000000100 #
b00000000011001000001100000100010 $
b11111111111111111111111111111111 %
b11111111111111111111111111111111 &
b00011 '
1)
b00000000000000000000000000000100 +
b00000000011001000001100000100010 ,
b11111111111111111111111111111111 -
b11111111111111111111111111111111 .
b00011 /
b00000000011001000001100000100010 1
b00011 3
b00100 4
b00011 5
b100010 7
b0001100000100010 8
b00011001000001100000100010 9
b00000000000000000000000000000100 D
b00000000000000000000000000001000 E
b00000000000000000000000000001000 F
b00000000000000000110000010010000 G
b00000001100100000110000010001000 H
b00011 I
b11111111111111111111111111111111 J
b00000000000000000000000000000011 K
b00000000000000000000000000000100 L
b00000000000000000001100000100010 M
b00000000000000000000000000000100 N
b001 O
b11111111111111111111111111111111 P
0Q
b00000000000000000000000000000100 S
b00000000011001000001100000100010 T
1a
b00011 d
b11111111111111111111111111111111 e
b00011 f
b00100 g
b00000000000000000000000000000011 h
b00000000000000000000000000000100 i
b0001100000100010 k
b00000000000000000001100000100010 l
b100010 n
b001 o
b00000000000000000000000000000011 p
b00000000000000000000000000000100 q
b001 r
b11111111111111111111111111111111 s
0t
1u
b11111111111111111111111111111111 v
b00000000000000000000000000000100 w
#26000000
#30000000
0!
0)
0a
0u
#35000000
1!
b00000000000000000000000000001000 #
b00000000011000010001000000100100 $
b00000000000000000000000000000101 %
b00000000000000000000000000000101 &
b00010 '
1)
b00000000000000000000000000001000 +
b00000000011000010001000000100100 ,
b00000000000000000000000000000101 -
b00000000000000000000000000000101 .
b00010 /
b00000000011000010001000000100100 1
b00001 4
b00010 5
b100100 7
b0001000000100100 8
b00011000010001000000100100 9
b00000000000000000000000000001000 D
b00000000000000000000000000001100 E
b00000000000000000000000000001100 F
b00000000000000000100000010011100 G
b00000001100001000100000010010000 H
b00010 I
b00000000000000000000000000000101 J
b11111111111111111111111111111111 K
b00000000000000000000000000000101 L
b00000000000000000001000000100100 M
b00000000000000000000000000000101 N
b010 O
b00000000000000000000000000000101 P
b00000000000000000000000000001000 S
b00000000011000010001000000100100 T
1a
b00010 d
b00000000000000000000000000000101 e
b00001 g
b11111111111111111111111111111111 h
b00000000000000000000000000000101 i
b0001000000100100 k
b00000000000000000001000000100100 l
b100100 n
b010 o
b11111111111111111111111111111111 p
b00000000000000000000000000000101 q
b010 r
b00000000000000000000000000000101 s
1u
b00000000000000000000000000000101 v
b00000000000000000000000000000101 w
#36000000
#40000000
0!
0)
0a
0u
#45000000
1!
b00000000000000000000000000001100 #
b00000000100000100001100000100101 $
b00011 '
1)
b00000000000000000000000000001100 +
b00000000100000100001100000100101 ,
b00011 /
b00000000100000100001100000100101 1
b00100 3
b00010 4
b00011 5
b100101 7
b0001100000100101 8
b00100000100001100000100101 9
b00000000000000000000000000001100 D
b00000000000000000000000000010000 E
b00000000000000000000000000010000 F
b00000000000000000110000010100100 G
b00000010000010000110000010010100 H
b00011 I
b00000000000000000000000000000100 K
b00000000000000000001100000100101 M
b011 O
b00000000000000000000000000001100 S
b00000000100000100001100000100101 T
1a
b00011 d
b00100 f
b00010 g
b00000000000000000000000000000100 h
b0001100000100101 k
b00000000000000000001100000100101 l
b100101 n
b011 o
b00000000000000000000000000000100 p
b011 r
1u
#46000000
#50000000
0!
0)
0a
0u
#55000000
1!
b00000000000000000000000000010000 #
b00000000010000110000100000100000 $
b00000000000000000000000000001010 %
b00000000000000000000000000001010 &
b00001 '
1)
b00000000000000000000000000010000 +
b00000000010000110000100000100000 ,
b00000000000000000000000000001010 -
b00000000000000000000000000001010 .
b00001 /
b00000000010000110000100000100000 1
b00010 3
b00011 4
b00001 5
b100000 7
b0000100000100000 8
b00010000110000100000100000 9
b00000000000000000000000000010000 D
b00000000000000000000000000010100 E
b00000000000000000000000000010100 F
b00000000000000000010000010010100 G
b00000001000011000010000010000000 H
b00001 I
b00000000000000000000000000001010 J
b00000000000000000000000000000101 K
b00000000000000000000100000100000 M
b000 O
b00000000000000000000000000001010 P
b00000000000000000000000000010000 S
b00000000010000110000100000100000 T
1a
b00001 d
b00000000000000000000000000001010 e
b00010 f
b00011 g
b00000000000000000000000000000101 h
b0000100000100000 k
b00000000000000000000100000100000 l
b100000 n
b000 o
b00000000000000000000000000000101 p
b000 r
b00000000000000000000000000001010 s
1u
b00000000000000000000000000001010 v
#60000000
0!
0)
0a
0u
#65000000
1!
b00000000000000000000000000010100 #
b00000000011001000001100000100010 $
b00000000000000000000000000000001 %
b00000000000000000000000000000001 &
b00011 '
1)
b00000000000000000000000000010100 +
b00000000011001000001100000100010 ,
b00000000000000000000000000000001 -
b00000000000000000000000000000001 .
b00011 /
b00000000011001000001100000100010 1
b00011 3
b00100 4
b00011 5
b100010 7
b0001100000100010 8
b00011001000001100000100010 9
b00000000000000000000000000010100 D
b00000000000000000000000000011000 E
b00000000000000000000000000011000 F
b00000000000000000110000010100000 G
b00000001100100000110000010001000 H
b00011 I
b00000000000000000000000000000001 J
b00000000000000000000000000000100 L
b00000000000000000001100000100010 M
b00000000000000000000000000000100 N
b001 O
b00000000000000000000000000000001 P
0Q
b00000000000000000000000000010100 S
b00000000011001000001100000100010 T
1a
b00011 d
b00000000000000000000000000000001 e
b00011 f
b00100 g
b00000000000000000000000000000100 i
b0001100000100010 k
b00000000000000000001100000100010 l
b100010 n
b001 o
b00000000000000000000000000000100 q
b001 r
b00000000000000000000000000000001 s
0t
1u
b00000000000000000000000000000001 v
b00000000000000000000000000000100 w
#70000000
0!
0)
0a
0u
#75000000
1!
b00000000000000000000000000011000 #
b00000000011000010001000000100100 $
b00000000000000000000000000000000 %
b00000000000000000000000000000000 &
b00010 '
1)
b00000000000000000000000000011000 +
b00000000011000010001000000100100 ,
b00000000000000000000000000000000 -
b00000000000000000000000000000000 .
b00010 /
b00000000011000010001000000100100 1
b00001 4
b00010 5
b100100 7
b0001000000100100 8
b00011000010001000000100100 9
b00000000000000000000000000011000 D
b00000000000000000000000000011100 E
b00000000000000000000000000011100 F
b00000000000000000100000010101100 G
b00000001100001000100000010010000 H
b00010 I
b00000000000000000000000000000000 J
b00000000000000000000000000000001 K
b00000000000000000000000000001010 L
b00000000000000000001000000100100 M
b00000000000000000000000000001010 N
b010 O
b00000000000000000000000000000000 P
1Q
b00000000000000000000000000011000 S
b00000000011000010001000000100100 T
1a
b00010 d
b00000000000000000000000000000000 e
b00001 g
b00000000000000000000000000000001 h
b00000000000000000000000000001010 i
b0001000000100100 k
b00000000000000000001000000100100 l
b100100 n
b010 o
b00000000000000000000000000000001 p
b00000000000000000000000000001010 q
b010 r
b00000000000000000000000000000000 s
1t
1u
b00000000000000000000000000000000 v
b00000000000000000000000000001010 w
#80000000
0!
0)
0a
0u
#85000000
1!
b00000000000000000000000000011100 #
b00000000100000100001100000100101 $
b00000000000000000000000000000100 %
b00000000000000000000000000000100 &
b00011 '
1)
b00000000000000000000000000011100 +
b00000000100000100001100000100101 ,
b00000000000000000000000000000100 -
b00000000000000000000000000000100 .
b00011 /
b00000000100000100001100000100101 1
b00100 3
b00010 4
b00011 5
b100101 7
b0001100000100101 8
b00100000100001100000100101 9
b00000000000000000000000000011100 D
b00000000000000000000000000100000 E
b00000000000000000000000000100000 F
b00000000000000000110000010110100 G
b00000010000010000110000010010100 H
b00011 I
b00000000000000000000000000000100 J
b00000000000000000000000000000100 K
b00000000000000000000000000000000 L
b00000000000000000001100000100101 M
b00000000000000000000000000000000 N
b011 O
b00000000000000000000000000000100 P
0Q
b00000000000000000000000000011100 S
b00000000100000100001100000100101 T
1a
b00011 d
b00000000000000000000000000000100 e
b00100 f
b00010 g
b00000000000000000000000000000100 h
b00000000000000000000000000000000 i
b0001100000100101 k
b00000000000000000001100000100101 l
b100101 n
b011 o
b00000000000000000000000000000100 p
b00000000000000000000000000000000 q
b011 r
b00000000000000000000000000000100 s
0t
1u
b00000000000000000000000000000100 v
b00000000000000000000000000000000 w
#90000000
0!
0)
0a
0u
#95000000
1!
b00000000000000000000000000100000 #
b00000000010000110000100000100000 $
b00000000000000000000000000000100 %
b00000000000000000000000000000100 &
b00001 '
1)
b00000000000000000000000000100000 +
b00000000010000110000100000100000 ,
b00000000000000000000000000000100 -
b00000000000000000000000000000100 .
b00001 /
b00000000010000110000100000100000 1
b00010 3
b00011 4
b00001 5
b100000 7
b0000100000100000 8
b00010000110000100000100000 9
b00000000000000000000000000100000 D
b00000000000000000000000000100100 E
b00000000000000000000000000100100 F
b00000000000000000010000010100100 G
b00000001000011000010000010000000 H
b00001 I
b00000000000000000000000000000100 J
b00000000000000000000000000000000 K
b00000000000000000000000000000100 L
b00000000000000000000100000100000 M
b00000000000000000000000000000100 N
b000 O
b00000000000000000000000000000100 P
0Q
b00000000000000000000000000100000 S
b00000000010000110000100000100000 T
1a
b00001 d
b00000000000000000000000000000100 e
b00010 f
b00011 g
b00000000000000000000000000000000 h
b00000000000000000000000000000100 i
b0000100000100000 k
b00000000000000000000100000100000 l
b100000 n
b000 o
b00000000000000000000000000000000 p
b00000000000000000000000000000100 q
b000 r
b00000000000000000000000000000100 s
0t
1u
b00000000000000000000000000000100 v
b00000000000000000000000000000100 w
#100000000
0!
0)
0a
0u
#105000000
1!
b00000000000000000000000000100100 #
b00000000000000000000000000000000 $
b00000000000000000000000000000000 %
b00000000000000000000000000000000 &
b00000 '
1)
b00000000000000000000000000100100 +
b00000000000000000000000000000000 ,
b00000000000000000000000000000000 -
b00000000000000000000000000000000 .
b00000 /
b00000000000000000000000000000000 1
b00000 3
b00000 4
b00000 5
b000000 7
b0000000000000000 8
b00000000000000000000000000 9
b00000000000000000000000000100100 D
b00000000000000000000000000101000 E
b00000000000000000000000000101000 F
b00000000000000000000000000101000 G
b00000000000000000000000000000000 H
b00000 I
b00000000000000000000000000000000 J
b00000000000000000000000000000000 L
b00000000000000000000000000000000 M
b00000000000000000000000000000000 N
b00000000000000000000000000000000 P
1Q
b00000000000000000000000000100100 S
b00000000000000000000000000000000 T
1a
b00000 d
b00000000000000000000000000000000 e
b00000 f
b00000 g
b00000000000000000000000000000000 i
b0000000000000000 k
b00000000000000000000000000000000 l
b000000 n
b00000000000000000000000000000000 q
b00000000000000000000000000000000 s
1t
1u
b00000000000000000000000000000000 v
b00000000000000000000000000000000 w
#110000000
0!
0)
0a
0u
#115000000
1!
b00000000000000000000000000101000 #
1)
b00000000000000000000000000101000 +
b00000000000000000000000000101000 D
b00000000000000000000000000101100 E
b00000000000000000000000000101100 F
b00000000000000000000000000101100 G
b00000000000000000000000000101000 S
1a
1u
#120000000
0!
0)
0a
0u
#125000000
1!
b00000000000000000000000000101100 #
1)
b00000000000000000000000000101100 +
b00000000000000000000000000101100 D
b00000000000000000000000000110000 E
b00000000000000000000000000110000 F
b00000000000000000000000000110000 G
b00000000000000000000000000101100 S
1a
1u
#130000000
0!
0)
0a
0u
#135000000
1!
b00000000000000000000000000110000 #
1)
b00000000000000000000000000110000 +
b00000000000000000000000000110000 D
b00000000000000000000000000110100 E
b00000000000000000000000000110100 F
b00000000000000000000000000110100 G
b00000000000000000000000000110000 S
1a
1u
#140000000
0!
0)
0a
0u
#145000000
1!
b00000000000000000000000000110100 #
1)
b00000000000000000000000000110100 +
b00000000000000000000000000110100 D
b00000000000000000000000000111000 E
b00000000000000000000000000111000 F
b00000000000000000000000000111000 G
b00000000000000000000000000110100 S
1a
1u
#150000000
0!
0)
0a
0u
#155000000
1!
b00000000000000000000000000111000 #
1)
b00000000000000000000000000111000 +
b00000000000000000000000000111000 D
b00000000000000000000000000111100 E
b00000000000000000000000000111100 F
b00000000000000000000000000111100 G
b00000000000000000000000000111000 S
1a
1u
#160000000
0!
0)
0a
0u
#165000000
1!
b00000000000000000000000000111100 #
1)
b00000000000000000000000000111100 +
b00000000000000000000000000111100 D
b00000000000000000000000001000000 E
b00000000000000000000000001000000 F
b00000000000000000000000001000000 G
b00000000000000000000000000111100 S
1a
1u
#170000000
0!
0)
0a
0u
#175000000
1!
b00000000000000000000000001000000 #
1)
b00000000000000000000000001000000 +
b00000000000000000000000001000000 D
b00000000000000000000000001000100 E
b00000000000000000000000001000100 F
b00000000000000000000000001000100 G
b00000000000000000000000001000000 S
1a
1u
#180000000
0!
0)
0a
0u
#185000000
1!
b00000000000000000000000001000100 #
1)
b00000000000000000000000001000100 +
b00000000000000000000000001000100 D
b00000000000000000000000001001000 E
b00000000000000000000000001001000 F
b00000000000000000000000001001000 G
b00000000000000000000000001000100 S
1a
1u
#190000000
0!
0)
0a
0u
#195000000
1!
b00000000000000000000000001001000 #
1)
b00000000000000000000000001001000 +
b00000000000000000000000001001000 D
b00000000000000000000000001001100 E
b00000000000000000000000001001100 F
b00000000000000000000000001001100 G
b00000000000000000000000001001000 S
1a
1u
#200000000
0!
0)
0a
0u
#205000000
1!
b00000000000000000000000001001100 #
1)
b00000000000000000000000001001100 +
b00000000000000000000000001001100 D
b00000000000000000000000001010000 E
b00000000000000000000000001010000 F
b00000000000000000000000001010000 G
b00000000000000000000000001001100 S
1a
1u
#210000000
0!
0)
0a
0u
#215000000
1!
b00000000000000000000000001010000 #
1)
b00000000000000000000000001010000 +
b00000000000000000000000001010000 D
b00000000000000000000000001010100 E
b00000000000000000000000001010100 F
b00000000000000000000000001010100 G
b00000000000000000000000001010000 S
1a
1u
#220000000
0!
0)
0a
0u
#225000000
1!
b00000000000000000000000001010100 #
1)
b00000000000000000000000001010100 +
b00000000000000000000000001010100 D
b00000000000000000000000001011000 E
b00000000000000000000000001011000 F
b00000000000000000000000001011000 G
b00000000000000000000000001010100 S
1a
1u
#230000000
0!
0)
0a
0u
#235000000
1!
b00000000000000000000000001011000 #
1)
b00000000000000000000000001011000 +
b00000000000000000000000001011000 D
b00000000000000000000000001011100 E
b00000000000000000000000001011100 F
b00000000000000000000000001011100 G
b00000000000000000000000001011000 S
1a
1u
#240000000
0!
0)
0a
0u
#245000000
1!
b00000000000000000000000001011100 #
1)
b00000000000000000000000001011100 +
b00000000000000000000000001011100 D
b00000000000000000000000001100000 E
b00000000000000000000000001100000 F
b00000000000000000000000001100000 G
b00000000000000000000000001011100 S
1a
1u
#250000000
0!
0)
0a
0u
#255000000
1!
b00000000000000000000000001100000 #
1)
b00000000000000000000000001100000 +
b00000000000000000000000001100000 D
b00000000000000000000000001100100 E
b00000000000000000000000001100100 F
b00000000000000000000000001100100 G
b00000000000000000000000001100000 S
1a
1u
#260000000
0!
0)
0a
0u
#265000000
1!
b00000000000000000000000001100100 #
1)
b00000000000000000000000001100100 +
b00000000000000000000000001100100 D
b00000000000000000000000001101000 E
b00000000000000000000000001101000 F
b00000000000000000000000001101000 G
b00000000000000000000000001100100 S
1a
1u
#270000000
0!
0)
0a
0u
#275000000
1!
b00000000000000000000000001101000 #
1)
b00000000000000000000000001101000 +
b00000000000000000000000001101000 D
b00000000000000000000000001101100 E
b00000000000000000000000001101100 F
b00000000000000000000000001101100 G
b00000000000000000000000001101000 S
1a
1u
#280000000
0!
0)
0a
0u
#285000000
1!
b00000000000000000000000001101100 #
1)
b00000000000000000000000001101100 +
b00000000000000000000000001101100 D
b00000000000000000000000001110000 E
b00000000000000000000000001110000 F
b00000000000000000000000001110000 G
b00000000000000000000000001101100 S
1a
1u
#290000000
0!
0)
0a
0u
#295000000
1!
b00000000000000000000000001110000 #
1)
b00000000000000000000000001110000 +
b00000000000000000000000001110000 D
b00000000000000000000000001110100 E
b00000000000000000000000001110100 F
b00000000000000000000000001110100 G
b00000000000000000000000001110000 S
1a
1u
#300000000
0!
0)
0a
0u
#305000000
1!
b00000000000000000000000001110100 #
1)
b00000000000000000000000001110100 +
b00000000000000000000000001110100 D
b00000000000000000000000001111000 E
b00000000000000000000000001111000 F
b00000000000000000000000001111000 G
b00000000000000000000000001110100 S
1a
1u
#310000000
0!
0)
0a
0u
#315000000
1!
b00000000000000000000000001111000 #
1)
b00000000000000000000000001111000 +
b00000000000000000000000001111000 D
b00000000000000000000000001111100 E
b00000000000000000000000001111100 F
b00000000000000000000000001111100 G
b00000000000000000000000001111000 S
1a
1u
#320000000
0!
0)
0a
0u
#325000000
1!
b00000000000000000000000001111100 #
1)
b00000000000000000000000001111100 +
b00000000000000000000000001111100 D
b00000000000000000000000010000000 E
b00000000000000000000000010000000 F
b00000000000000000000000010000000 G
b00000000000000000000000001111100 S
1a
1u
#330000000
0!
0)
0a
0u
#335000000
1!
b00000000000000000000000010000000 #
1)
b00000000000000000000000010000000 +
b00000000000000000000000010000000 D
b00000000000000000000000010000100 E
b00000000000000000000000010000100 F
b00000000000000000000000010000100 G
b00000000000000000000000010000000 S
1a
1u
#340000000
0!
0)
0a
0u
#345000000
1!
b00000000000000000000000010000100 #
1)
b00000000000000000000000010000100 +
b00000000000000000000000010000100 D
b00000000000000000000000010001000 E
b00000000000000000000000010001000 F
b00000000000000000000000010001000 G
b00000000000000000000000010000100 S
1a
1u
#350000000
0!
0)
0a
0u
#355000000
1!
b00000000000000000000000010001000 #
1)
b00000000000000000000000010001000 +
b00000000000000000000000010001000 D
b00000000000000000000000010001100 E
b00000000000000000000000010001100 F
b00000000000000000000000010001100 G
b00000000000000000000000010001000 S
1a
1u
#360000000
0!
0)
0a
0u
#365000000
1!
b00000000000000000000000010001100 #
1)
b00000000000000000000000010001100 +
b00000000000000000000000010001100 D
b00000000000000000000000010010000 E
b00000000000000000000000010010000 F
b00000000000000000000000010010000 G
b00000000000000000000000010001100 S
1a
1u
#370000000
0!
0)
0a
0u
#375000000
1!
b00000000000000000000000010010000 #
1)
b00000000000000000000000010010000 +
b00000000000000000000000010010000 D
b00000000000000000000000010010100 E
b00000000000000000000000010010100 F
b00000000000000000000000010010100 G
b00000000000000000000000010010000 S
1a
1u
#380000000
0!
0)
0a
0u
#385000000
1!
b00000000000000000000000010010100 #
1)
b00000000000000000000000010010100 +
b00000000000000000000000010010100 D
b00000000000000000000000010011000 E
b00000000000000000000000010011000 F
b00000000000000000000000010011000 G
b00000000000000000000000010010100 S
1a
1u
#390000000
0!
0)
0a
0u
#395000000
1!
b00000000000000000000000010011000 #
1)
b00000000000000000000000010011000 +
b00000000000000000000000010011000 D
b00000000000000000000000010011100 E
b00000000000000000000000010011100 F
b00000000000000000000000010011100 G
b00000000000000000000000010011000 S
1a
1u
#400000000
0!
0)
0a
0u
#405000000
1!
b00000000000000000000000010011100 #
1)
b00000000000000000000000010011100 +
b00000000000000000000000010011100 D
b00000000000000000000000010100000 E
b00000000000000000000000010100000 F
b00000000000000000000000010100000 G
b00000000000000000000000010011100 S
1a
1u
#410000000
0!
0)
0a
0u
#415000000
1!
b00000000000000000000000010100000 #
1)
b00000000000000000000000010100000 +
b00000000000000000000000010100000 D
b00000000000000000000000010100100 E
b00000000000000000000000010100100 F
b00000000000000000000000010100100 G
b00000000000000000000000010100000 S
1a
1u
#420000000
0!
0)
0a
0u
#425000000
1!
b00000000000000000000000010100100 #
1)
b00000000000000000000000010100100 +
b00000000000000000000000010100100 D
b00000000000000000000000010101000 E
b00000000000000000000000010101000 F
b00000000000000000000000010101000 G
b00000000000000000000000010100100 S
1a
1u
#430000000
0!
0)
0a
0u
#435000000
1!
b00000000000000000000000010101000 #
1)
b00000000000000000000000010101000 +
b00000000000000000000000010101000 D
b00000000000000000000000010101100 E
b00000000000000000000000010101100 F
b00000000000000000000000010101100 G
b00000000000000000000000010101000 S
1a
1u
#440000000
0!
0)
0a
0u
#445000000
1!
b00000000000000000000000010101100 #
1)
b00000000000000000000000010101100 +
b00000000000000000000000010101100 D
b00000000000000000000000010110000 E
b00000000000000000000000010110000 F
b00000000000000000000000010110000 G
b00000000000000000000000010101100 S
1a
1u
#450000000
0!
0)
0a
0u
#455000000
1!
b00000000000000000000000010110000 #
1)
b00000000000000000000000010110000 +
b00000000000000000000000010110000 D
b00000000000000000000000010110100 E
b00000000000000000000000010110100 F
b00000000000000000000000010110100 G
b00000000000000000000000010110000 S
1a
1u
#460000000
0!
0)
0a
0u
#465000000
1!
b00000000000000000000000010110100 #
1)
b00000000000000000000000010110100 +
b00000000000000000000000010110100 D
b00000000000000000000000010111000 E
b00000000000000000000000010111000 F
b00000000000000000000000010111000 G
b00000000000000000000000010110100 S
1a
1u
#470000000
0!
0)
0a
0u
#475000000
1!
b00000000000000000000000010111000 #
1)
b00000000000000000000000010111000 +
b00000000000000000000000010111000 D
b00000000000000000000000010111100 E
b00000000000000000000000010111100 F
b00000000000000000000000010111100 G
b00000000000000000000000010111000 S
1a
1u
#480000000
0!
0)
0a
0u
#485000000
1!
b00000000000000000000000010111100 #
1)
b00000000000000000000000010111100 +
b00000000000000000000000010111100 D
b00000000000000000000000011000000 E
b00000000000000000000000011000000 F
b00000000000000000000000011000000 G
b00000000000000000000000010111100 S
1a
1u
#490000000
0!
0)
0a
0u
#495000000
1!
b00000000000000000000000011000000 #
1)
b00000000000000000000000011000000 +
b00000000000000000000000011000000 D
b00000000000000000000000011000100 E
b00000000000000000000000011000100 F
b00000000000000000000000011000100 G
b00000000000000000000000011000000 S
1a
1u
